Name: Wahid Roll: 5
----------------------------------------
Subject	| Marks	| Grade Point| Grade|
----------------------------------------
Bangla	| 63	| 3.0		| A-	|
----------------------------------------
English	| 45	| 1.0		| C 	|
----------------------------------------
Math	| 54	| 2.0		| B 	|
----------------------------------------
Religion| 66	| 3.0		| A-	|
----------------------------------------
			GPA	| 2.25		| B 	|
----------------------------------------